…
  Starting. . .  Submitter info . . .  Contributors . . .  Experiments . . .  Treatments . . .  Plots . . .  Emission . . .  Publications . . .   file  ../../data-submitted/03/AU/ALFAM2_template_6_1_220524_JP_21E_220610.xlsx 
  Starting. . .  Submitter info . . .  Contributors . . .  Experiments . . .  Treatments . . .  Plots . . .  Emission . . .  Publications . . .Emission rate unit not available for conversion:  NA 
But  kgNH3/ha-hr  is OK.
See cleanALFAM() function.
   file  ../../data-submitted/03/AU/ALFAM2_template_6_1_230726_JP_18EF.xlsx 
  Starting. . .  Submitter info . . .  Contributors . . .  Experiments . . .  Treatments . . .  Plots . . .  Emission . . .  Publications . . .   file  ../../data-submitted/03/AU/ALFAM2_template_6_1_230726_JP_19G20AB.xlsx 
  Starting. . .  Submitter info . . .  Contributors . . .  Experiments . . .  Treatments . . .  Plots . . .  Emission . . .  Publications . . .   file  ../../data-submitted/03/AU/ALFAM2_template_6_1_eGylle_JK_3.xlsx 
  Starting. . .  Submitter info . . .  Contributors . . .  Experiments . . .  Treatments . . .  Plots . . .  Emission . . .  Publications . . .Did not find any publication info. . . might be good to double-check spreadsheet.
# A tibble: 1 × 1
  ``   
  <chr>
1 .    
   file  ../../data-submitted/03/AU/ALFAM2_template_6.1 SGS(Rev).xlsx 
  Starting. . .  Submitter info . . .  Contributors . . .  Experiments . . .  Treatments . . .  Plots . . .  Emission . . .  Publications . . .Did not find any publication info. . . might be good to double-check spreadsheet.
# A tibble: 26 × 18
      `` ``    ``    ``    ``    ``    ``    ``    ``    ``    ``    ``    ``   
   <dbl> <chr> <lgl> <lgl> <lgl> <lgl> <lgl> <lgl> <lgl> <lgl> <lgl> <lgl> <lgl>
 1     1 "3.\… NA    NA    NA    NA    NA    NA    NA    NA    NA    NA    NA   
 2    NA  <NA> NA    NA    NA    NA    NA    NA    NA    NA    NA    NA    NA   
 3    NA  <NA> NA    NA    NA    NA    NA    NA    NA    NA    NA    NA    NA   
 4    NA  <NA> NA    NA    NA    NA    NA    NA    NA    NA    NA    NA    NA   
 5    NA  <NA> NA    NA    NA    NA    NA    NA    NA    NA    NA    NA    NA   
 6    NA  <NA> NA    NA    NA    NA    NA    NA    NA    NA    NA    NA    NA   
 7    NA  <NA> NA    NA    NA    NA    NA    NA    NA    NA    NA    NA    NA   
 8    NA  <NA> NA    NA    NA    NA    NA    NA    NA    NA    NA    NA    NA   
 9    NA  <NA> NA    NA    NA    NA    NA    NA    NA    NA    NA    NA    NA   
10    NA  <NA> NA    NA    NA    NA    NA    NA    NA    NA    NA    NA    NA   
# ℹ 16 more rows
# ℹ 5 more variables: `` <dbl>, `` <dbl>, `` <dbl>, `` <dbl>, `` <dbl>
# ℹ Use `print(n = ...)` to see more rows
…
